\relax 
\providecommand{\transparent@use}[1]{}
\providecommand\hyper@newdestlabel[2]{}
\bibstyle{apalike}
\providecommand\HyperFirstAtBeginDocument{\AtBeginDocument}
\HyperFirstAtBeginDocument{\ifx\hyper@anchor\@undefined
\global\let\oldcontentsline\contentsline
\gdef\contentsline#1#2#3#4{\oldcontentsline{#1}{#2}{#3}}
\global\let\oldnewlabel\newlabel
\gdef\newlabel#1#2{\newlabelxx{#1}#2}
\gdef\newlabelxx#1#2#3#4#5#6{\oldnewlabel{#1}{{#2}{#3}}}
\AtEndDocument{\ifx\hyper@anchor\@undefined
\let\contentsline\oldcontentsline
\let\newlabel\oldnewlabel
\fi}
\fi}
\global\let\hyper@last\relax 
\gdef\HyperFirstAtBeginDocument#1{#1}
\providecommand\HyField@AuxAddToFields[1]{}
\providecommand\HyField@AuxAddToCoFields[2]{}
\citation{mitc27}
\citation{Krolzig2001,Darvas2008,Einarsson2013,Antonakakis2014}
\citation{Mundell1961}
\citation{McKinnon1963}
\citation{Furceri2008}
\citation{Frankel1998}
\@writefile{toc}{\contentsline {section}{\numberline {1}Introduction}{3}{section.1}}
\citation{Artis1997a}
\citation{Krolzig2001}
\citation{Darvas2008,Furceri2008,Antonakakis2014}
\citation{Artis1997b,Artis1999}
\citation{Giannone2009}
\citation{Artis2004}
\@writefile{toc}{\contentsline {section}{\numberline {2}Literature review}{4}{section.2}}
\citation{Giannone2009}
\citation{Artis2004}
\citation{Harding2005}
\citation{Krolzig2001,Furceri2008,Giannone2009}
\citation{Artis1997a,Artis1997b,Artis1999,Savva2010,Artis2004,Harding2006}
\citation{Darvas2008}
\citation{Einarsson2013}
\citation{Stock2014}
\citation{Antonakakis2014}
\citation{burn46}
\citation{Hall2001}
\citation{Giannone2009}
\citation{burn46}
\citation{Mintz1969}
\citation{burn46}
\citation{Harding2006}
\citation{Krolzig2001}
\citation{Artis1997a}
\citation{McDermott2000}
\citation{Artis2004}
\citation{Artis1997a}
\citation{Pagan1997a,Pagan1997b}
\citation{Harding2002}
\citation{Krolzig2001}
\citation{Hamilton1989}
\@writefile{toc}{\contentsline {section}{\numberline {3}Methodology}{6}{section.3}}
\citation{Bry1971}
\citation{Harding2002}
\citation{Bry1971}
\citation{Bry1971}
\citation{Harding2002}
\citation{McDermott2000}
\citation{Artis1997a}
\citation{Artis1999}
\citation{McDermott2000}
\citation{Harding2002}
\citation{Krolzig2001}
\citation{Harding2006}
\citation{Krolzig2001}
\citation{Giannone2009}
\citation{Darvas2008}
\citation{Artis1997b,Artis1999}
\citation{Furceri2008}
\citation{Artis2004}
\citation{Giannone2009}
\@writefile{toc}{\contentsline {section}{\numberline {4}Data}{9}{section.4}}
\citation{Giannone2009}
\citation{Artis2004}
\@writefile{toc}{\contentsline {section}{\numberline {5}Results}{10}{section.5}}
\citation{Blanchard2007}
\citation{Bednarzik1982}
\@writefile{toc}{\contentsline {subsection}{\numberline {5.1}Business cycles' chronology}{11}{subsection.5.1}}
\citation{Honkapohja1999}
\citation{Honkapohja1999}
\citation{Walsh1993}
\@writefile{lof}{\contentsline {figure}{\numberline {1}{\ignorespaces Heatmap of the business cycles\relax }}{12}{figure.caption.1}}
\providecommand*\caption@xref[2]{\@setref\relax\@undefined{#1}}
\newlabel{fig:heatmap}{{1}{12}{Heatmap of the business cycles\relax }{figure.caption.1}{}}
\citation{BIS2008}
\citation{Einarsson2013}
\citation{Nikkinen2012}
\citation{Atoyan2013}
\@writefile{toc}{\contentsline {subsection}{\numberline {5.2}Business cycle synchronisation}{14}{subsection.5.2}}
\citation{Harding1999}
\citation{McDermott2000}
\citation{Krolzig2001}
\@writefile{toc}{\contentsline {subsubsection}{\numberline {5.2.1}Concordance of the business cycles}{15}{subsubsection.5.2.1}}
\@writefile{lot}{\contentsline {table}{\numberline {1}{\ignorespaces Business cycle concordance index\relax }}{16}{table.caption.2}}
\newlabel{tab:bcci}{{1}{16}{Business cycle concordance index\relax }{table.caption.2}{}}
\citation{Harding2006}
\citation{Harding2006}
\@writefile{toc}{\contentsline {subsubsection}{\numberline {5.2.2}Correlation of the business cycles}{17}{subsubsection.5.2.2}}
\@writefile{lof}{\contentsline {figure}{\numberline {2}{\ignorespaces Business cycle state correlation coefficient\relax }}{18}{figure.caption.3}}
\newlabel{fig:scatter_rhofs}{{2}{18}{Business cycle state correlation coefficient\relax }{figure.caption.3}{}}
\@writefile{lot}{\contentsline {table}{\numberline {2}{\ignorespaces Business cycle states correlation\relax }}{19}{table.caption.4}}
\newlabel{tab:bcrho}{{2}{19}{Business cycle states correlation\relax }{table.caption.4}{}}
\citation{Artis1997b}
\citation{Artis1997b}
\@writefile{lot}{\contentsline {table}{\numberline {3}{\ignorespaces Maximum correlation coefficient\relax }}{21}{table.caption.5}}
\newlabel{tab:corr_lead_lag}{{3}{21}{Maximum correlation coefficient\relax }{table.caption.5}{}}
\citation{Atoyan2013}
\citation{Nikkinen2012}
\citation{Krolzig2001}
\citation{Krolzig2001}
\@writefile{lof}{\contentsline {figure}{\numberline {3}{\ignorespaces Time variation in contemporaneous correlation\relax }}{23}{figure.caption.6}}
\newlabel{fig:scatter_rho_var}{{3}{23}{Time variation in contemporaneous correlation\relax }{figure.caption.6}{}}
\@writefile{toc}{\contentsline {subsubsection}{\numberline {5.2.3}The synchronization of business cycle measures}{23}{subsubsection.5.2.3}}
\@writefile{lot}{\contentsline {table}{\numberline {4}{\ignorespaces Business cycle measures\relax }}{24}{table.caption.7}}
\newlabel{tab:bcstats}{{4}{24}{Business cycle measures\relax }{table.caption.7}{}}
\citation{Nikkinen2012}
\citation{burn46}
\citation{Bry1971}
\citation{Harding2002}
\@writefile{toc}{\contentsline {section}{\numberline {6}Conclusions}{25}{section.6}}
\citation{burn46,Krolzig2001,Furceri2008,Giannone2009}
\citation{Harding2006}
\citation{Krolzig2001}
\bibdata{references,refother}
\bibcite{Antonakakis2014}{{1}{2014}{{Antonakakis and Tondl}}{{}}}
\bibcite{Artis2004}{{2}{2004}{{Artis et~al.}}{{}}}
\bibcite{Artis1997a}{{3}{1997}{{Artis et~al.}}{{}}}
\bibcite{Artis1997b}{{4}{1997}{{Artis and Zhang}}{{}}}
\bibcite{Artis1999}{{5}{1999}{{Artis and Zhang}}{{}}}
\bibcite{Atoyan2013}{{6}{2013}{{Atoyan et~al.}}{{}}}
\bibcite{Bednarzik1982}{{7}{1982}{{Bednarzik et~al.}}{{}}}
\bibcite{BIS2008}{{8}{2008}{{BIS}}{{}}}
\bibcite{Blanchard2007}{{9}{2007}{{Blanchard and Gal\'{\i }}}{{}}}
\bibcite{Bry1971}{{10}{1971}{{Bry and Boschan}}{{}}}
\bibcite{burn46}{{11}{1946}{{Burns and Mitchell}}{{}}}
\bibcite{Darvas2008}{{12}{2008}{{Darvas and Szap\'{a}ry}}{{}}}
\bibcite{Einarsson2013}{{13}{2013}{{Einarsson et~al.}}{{}}}
\bibcite{Frankel1998}{{14}{1998}{{Frankel and Rose}}{{}}}
\bibcite{Furceri2008}{{15}{2008}{{Furceri and Karras}}{{}}}
\bibcite{Giannone2009}{{16}{2009}{{Giannone et~al.}}{{}}}
\bibcite{DenHaan1997_pb}{{17}{1996}{{Haan and Levin}}{{}}}
\bibcite{Hall2001}{{18}{2001}{{Hall et~al.}}{{}}}
\bibcite{Hamilton1989}{{19}{1989}{{Hamilton}}{{}}}
\bibcite{Harding1999}{{20}{1999}{{Harding and Pagan}}{{}}}
\bibcite{Harding2002}{{21}{2002}{{Harding and Pagan}}{{}}}
\bibcite{Harding2005}{{22}{2005}{{Harding and Pagan}}{{}}}
\bibcite{Harding2006}{{23}{2006}{{Harding and Pagan}}{{}}}
\bibcite{Honkapohja1999}{{24}{1999}{{Honkapohja and Koskela}}{{}}}
\bibcite{Krolzig2001}{{25}{2005}{{Krolzig and Toro}}{{}}}
\bibcite{McDermott2000}{{26}{2000}{{McDermott and Scott}}{{}}}
\bibcite{McKinnon1963}{{27}{1963}{{McKinnon}}{{}}}
\bibcite{Mintz1969}{{28}{1969}{{Mintz}}{{}}}
\bibcite{mitc27}{{29}{1927}{{Mitchell}}{{}}}
\bibcite{Mundell1961}{{30}{1961}{{Mundell}}{{}}}
\bibcite{Newey1987}{{31}{1987}{{Newey and West}}{{}}}
\bibcite{Nikkinen2012}{{32}{2012}{{Nikkinen et~al.}}{{}}}
\bibcite{Pagan1997a}{{33}{1997a}{{Pagan}}{{}}}
\bibcite{Pagan1997b}{{34}{1997b}{{Pagan}}{{}}}
\bibcite{Savva2010}{{35}{2010}{{Savva et~al.}}{{}}}
\bibcite{Stock2014}{{36}{2014}{{Stock and Watson}}{{}}}
\bibcite{Walsh1993}{{37}{1993}{{Walsh}}{{}}}
\@writefile{toc}{\contentsline {section}{\numberline {A}Data description}{31}{appendix.A}}
\newlabel{sect_apdx_data}{{A}{31}{Data description}{appendix.A}{}}
\@writefile{lot}{\contentsline {table}{\numberline {A.5}{\ignorespaces Data description\relax }}{31}{table.caption.9}}
\newlabel{tab_data}{{A.5}{31}{Data description\relax }{table.caption.9}{}}
\citation{Harding2006}
\citation{Newey1987}
\citation{DenHaan1997_pb}
\@writefile{toc}{\contentsline {section}{\numberline {B}Estimation of the standard error of the correlation coefficient between states}{32}{appendix.B}}
\newlabel{apdx:GMM}{{B}{32}{Estimation of the standard error of the correlation coefficient between states}{appendix.B}{}}
\@writefile{toc}{\contentsline {section}{\numberline {C}Time variation in contemporaneous correlation revisited}{33}{appendix.C}}
\newlabel{apdx:scatterplot}{{C}{33}{Time variation in contemporaneous correlation revisited}{appendix.C}{}}
\citation{Harding2002}
\citation{Krolzig2001}
\@writefile{lof}{\contentsline {figure}{\numberline {C.4}{\ignorespaces Time variation in contemporaneous correlation\relax }}{34}{figure.caption.10}}
\newlabel{fig:scatter_rho_var2}{{C.4}{34}{Time variation in contemporaneous correlation\relax }{figure.caption.10}{}}
\@writefile{toc}{\contentsline {section}{\numberline {D}Business cycle statistics}{34}{appendix.D}}
\newlabel{apdx:bcstats}{{D}{34}{Business cycle statistics}{appendix.D}{}}
\@writefile{lof}{\contentsline {figure}{\numberline {D.5}{\ignorespaces Stylized recession\relax }}{35}{figure.caption.11}}
\newlabel{fig:stylrec}{{D.5}{35}{Stylized recession\relax }{figure.caption.11}{}}
