\relax 
\providecommand\hyper@newdestlabel[2]{}
\bibstyle{elsarticle-harv}
\providecommand\HyperFirstAtBeginDocument{\AtBeginDocument}
\HyperFirstAtBeginDocument{\ifx\hyper@anchor\@undefined
\global\let\oldcontentsline\contentsline
\gdef\contentsline#1#2#3#4{\oldcontentsline{#1}{#2}{#3}}
\global\let\oldnewlabel\newlabel
\gdef\newlabel#1#2{\newlabelxx{#1}#2}
\gdef\newlabelxx#1#2#3#4#5#6{\oldnewlabel{#1}{{#2}{#3}}}
\AtEndDocument{\ifx\hyper@anchor\@undefined
\let\contentsline\oldcontentsline
\let\newlabel\oldnewlabel
\fi}
\fi}
\global\let\hyper@last\relax 
\gdef\HyperFirstAtBeginDocument#1{#1}
\providecommand\HyField@AuxAddToFields[1]{}
\providecommand\HyField@AuxAddToCoFields[2]{}
\emailauthor{grigorasveaceslav@yahoo.com}{Veaceslav Grigora\c {s}\corref {cor1}}
\emailauthor{stanciuirinaeusignia@yahoo.com}{Irina Eusignia Stanciu}
\Newlabel{t1}{1}
\Newlabel{cor1}{1}
\Newlabel{bnr}{a}
\Newlabel{ase}{b}
