Row,EU_28,Belgium,Bulgaria,Czech_Republic,Denmark,Germany,Estonia,Ireland,Greece,Spain,France,Croatia,Italy,Cyprus,Latvia,Lithuania,Luxembourg,Hungary,Malta,Netherlands,Austria,Portugal,Romania,Slovenia,Slovakia,Finland,Sweden,UK,EA_19,Switzerland,Iceland,Norway,USA,UK_SA,CH_SA
1975Q1,,,,,,,,,,,,,,,,,,,,,,,,,,,,,,,,,1,0,
1975Q2,,,,,,,,,,,,,,,,,,,,,,,,,,,,,,,,,1,0,
1975Q3,,,,,,,,,,,,,,,,,,,,,,,,,,,,,,,,,1,0,
1975Q4,,,,,,,,,,,,,,,,,,,,,,,,,,,,,,,,,1,1,
1976Q1,,,,,,,,,,,,,,,,,,,,,,,,,,,,,,,,,1,1,
1976Q2,,,,,,,,,,,,,,,,,,,,,,,,,,,,,,,,,1,1,
1976Q3,,,,,,,,,,,,,,,,,,,,,,,,,,,,,,,,,1,1,
1976Q4,,,,,,,,,,,,,,,,,,,,,,,,,,,,,,,,,1,1,
1977Q1,,,,,,,,,,,,,,,,,,,,,,,,,,,,,,,,,1,1,
1977Q2,,,,,,,,,,,,,,,,,,,,,,,,,,,,,,,,,1,1,
1977Q3,,,,,,,,,,,,,,,,,,,,,,,,,,,,,,,,,1,1,
1977Q4,,,,,,,,,,,,,,,,,,,,,,,,,,,,,,,,,1,1,
1978Q1,,,,,,,,,,,,,,,,,,,,,,,,,,,,,,,,,1,1,
1978Q2,,,,,,,,,,,,,,,,,,,,,,,,,,,,,,,,,1,1,
1978Q3,,,,,,,,,,,,,,,,,,,,,,,,,,,,,,,,,1,1,
1978Q4,,,,,,,,,,,,,,,,,,,,,,,,,,,,,,,,,1,1,
1979Q1,,,,,,,,,,,,,,,,,,,,,,,,,,,,,,,,,1,1,
1979Q2,,,,,,,,,,,,,,,,,,,,,,,,,,,,,,,,,1,1,
1979Q3,,,,,,,,,,,,,,,,,,,,,,,,,,,,,,,,,1,0,
1979Q4,,,,,,,,,,,,,,,,,,,,,,,,,,,,,,,,,1,0,
1980Q1,,,,,,,,,,,0,,,,,,,,,,,,,,,,,,,1,,,1,0,1
1980Q2,,,,,,,,,,,0,,,,,,,,,,,,,,,,,,,1,,,0,0,1
1980Q3,,,,,,,,,,,0,,,,,,,,,,,,,,,,,,,1,,,0,0,1
1980Q4,,,,,,,,,,,0,,,,,,,,,,,,,,,,,,,1,,,1,0,1
1981Q1,,,,,,,,,,,1,,,,,,,,,,,,,,,,,,,1,,,1,0,1
1981Q2,,,,,,,,,,,1,,,,,,,,,,,,,,,,,,,1,,,1,1,1
1981Q3,,,,,,,,,,,1,,,,,,,,,,,,,,,,,,,1,,,1,1,1
1981Q4,,,,,,,,,,,1,,,,,,,,,,,,,,,,,,,1,,,0,1,1
1982Q1,,,,,,,,,,,1,,,,,,,,,,,,,,,,,,,0,,,0,1,0
1982Q2,,,,,,,,,,,1,,,,,,,,,,,,,,,,,,,0,,,1,1,0
1982Q3,,,,,,,,,,,1,,,,,,,,,,,,,,,,,,,0,,,1,1,0
1982Q4,,,,,,,,,,,1,,,,,,,,,,,,,,,,,,,0,,,1,1,0
1983Q1,,,,,,,,,,,1,,,,,,,,,,,,,,,,,,,1,,,1,1,1
1983Q2,,,,,,,,,,,1,,,,,,,,,,,,,,,,,,,1,,,1,1,1
1983Q3,,,,,,,,,,,1,,,,,,,,,,,,,,,,,,,1,,,1,1,1
1983Q4,,,,,,,,,,,1,,,,,,,,,,,,,,,,,,,1,,,1,1,1
1984Q1,,,,,,,,,,,1,,,,,,,,,,,,,,,,,,,1,,,1,1,1
1984Q2,,,,,,,,,,,1,,,,,,,,,,,,,,,,,,,1,,,1,1,1
1984Q3,,,,,,,,,,,1,,,,,,,,,,,,,,,,,,,1,,,1,1,1
1984Q4,,,,,,,,,,,1,,,,,,,,,,,,,,,,,,,1,,,1,1,1
1985Q1,,,,,,,,,,,1,,,,,,,,,,,,,,,,,,,1,,,1,1,1
1985Q2,,,,,,,,,,,1,,,,,,,,,,,,,,,,,,,1,,,1,1,1
1985Q3,,,,,,,,,,,1,,,,,,,,,,,,,,,,,,,1,,,1,1,1
1985Q4,,,,,,,,,,,1,,,,,,,,,,,,,,,,,,,1,,,1,1,1
1986Q1,,,,,,,,,,,1,,,,,,,,,,,,,,,,,,,1,,,1,1,1
1986Q2,,,,,,,,,,,1,,,,,,,,,,,,,,,,,,,1,,,1,1,1
1986Q3,,,,,,,,,,,1,,,,,,,,,,,,,,,,,,,1,,,1,1,0
1986Q4,,,,,,,,,,,1,,,,,,,,,,,,,,,,,,,1,,,1,1,0
1987Q1,,,,,,,,,,,1,,,,,,,,,,,,,,,,,,,1,,,1,1,1
1987Q2,,,,,,,,,,,1,,,,,,,,,,,,,,,,,,,1,,,1,1,1
1987Q3,,,,,,,,,,,1,,,,,,,,,,,,,,,,,,,1,,,1,1,1
1987Q4,,,,,,,,,,,1,,,,,,,,,,,,,,,,,,,1,,,1,1,1
1988Q1,,,,,,,,,,,1,,,,,,,,,,,,,,,,,,,1,,,1,1,1
1988Q2,,,,,,,,,,,1,,,,,,,,,,,,,,,,,,,1,,,1,1,1
1988Q3,,,,,,,,,,,1,,,,,,,,,,,,,,,,,,,1,,,1,1,1
1988Q4,,,,,,,,,,,1,,,,,,,,,,,,,,,,,,,1,,,1,1,1
1989Q1,,,,,,,,,,,1,,,,,,,,,,,,,,,,,,,1,,,1,1,1
1989Q2,,,,,,,,,,,1,,,,,,,,,,,,,,,,,,,1,,,1,1,1
1989Q3,,,,,,,,,,,1,,,,,,,,,,,,,,,,,,,1,,,1,1,1
1989Q4,,,,,,,,,,,1,,,,,,,,,,,,,,,,,,,1,,,1,1,1
1990Q1,,,,,,,,,,,1,,,,,,,,,,,,,,,0,,,,1,,,1,1,1
1990Q2,,,,,,,,,,,1,,,,,,,,,,,,,,,0,,,,1,,,1,1,1
1990Q3,,,,,,,,,,,1,,,,,,,,,,,,,,,0,,,,0,,,1,0,0
1990Q4,,,,,,,,,,,0,,,,,,,,,,,,,,,0,,,,0,,,0,0,0
1991Q1,,,,,,0,,,,,0,,,,,,,,,,,,,,,0,,,,0,,,0,0,0
1991Q2,,,,,,0,,,,,1,,,,,,,,,,,,,,,0,,,,0,,,1,0,0
1991Q3,,,,,,0,,,,,1,,,,,,,,,,,,,,,0,,,,0,,,1,0,0
1991Q4,,,,,,1,,,,,1,,,,,,,,,,,,,,,0,,,,1,,,1,1,1
1992Q1,,,,,,1,,,,,1,,,,,,,,,,,,,,,0,,,,1,,,1,1,1
1992Q2,,,,,,0,,,,,0,,,,,,,,,,,,,,,0,,,,0,,,1,1,0
1992Q3,,,,,,0,,,,,0,,,,,,,,,,,,,,,0,,,,0,,,1,1,0
1992Q4,,,,,,0,,,,,0,,,,,,,,,,,,,,,0,,,,0,,,1,1,0
1993Q1,,,,,,0,,,,,0,,,,,,,,,,,,,,,0,1,,,1,,,1,1,0
1993Q2,,,,,,1,,,,,1,,,,,,,,,,,,,,,1,1,,,1,,,1,1,1
1993Q3,,,,,,1,,,,,1,,,,,,,,,,,,,,,1,1,,,1,,,1,1,1
1993Q4,,,,,,1,,,,,1,,,,,,,,,,,,,,,1,1,,,1,,,1,1,1
1994Q1,,,,,,1,,,,,1,,,,,,,,,,,,,,,1,1,,,1,,,1,1,1
1994Q2,,,,,,1,,,,,1,,,,,,,,,,,,,,,1,1,,,1,,,1,1,1
1994Q3,,,,,,1,,,,,1,,,,,,,,,,,,,,,1,1,,,1,,,1,1,1
1994Q4,,,,,,1,,,,,1,,,,,,,,,,,,,,,1,1,,,1,,,1,1,1
1995Q1,1,1,,,1,1,,,1,1,1,,1,,0,,,0,,,,1,1,1,,1,1,1,1,1,,1,1,1,1
1995Q2,1,1,,,1,1,,,1,1,1,,1,,0,,,0,,,,1,1,1,,1,1,1,1,1,,1,1,1,1
1995Q3,1,1,,,1,1,,,1,1,1,,1,,0,,,0,,,,1,1,1,,1,1,1,1,1,,1,1,1,1
1995Q4,1,1,,,1,0,,,1,1,1,,1,,0,,,0,,,,1,1,1,,1,1,1,1,1,,1,1,1,1
1996Q1,1,1,,1,1,0,,,1,1,1,,1,1,1,,,1,,1,1,1,1,1,,1,1,1,1,0,,1,1,1,1
1996Q2,1,1,,1,1,1,,,1,1,1,,0,1,1,,,1,,1,1,1,1,1,,1,1,1,1,0,,1,1,1,0
1996Q3,1,1,,1,1,1,,,1,1,1,,0,1,1,,,1,,1,1,1,1,1,,1,1,1,1,0,,1,1,1,0
1996Q4,1,1,,0,1,1,,,1,1,1,,0,1,1,,,1,,1,1,1,0,1,,1,1,1,1,1,,1,1,1,1
1997Q1,1,1,,0,1,1,,1,1,1,1,,1,1,1,,,1,,1,1,1,0,1,0,1,1,1,1,1,0,1,1,1,1
1997Q2,1,1,,0,1,1,,1,1,1,1,,1,1,1,,,1,,1,1,1,0,1,0,1,1,1,1,1,0,1,1,1,1
1997Q3,1,1,,0,0,1,,1,1,1,1,,1,1,1,,,1,,1,1,1,0,1,0,1,1,1,1,1,0,1,1,1,1
1997Q4,1,1,,0,0,1,,1,1,1,1,,1,1,1,,,1,,1,1,1,0,1,0,1,1,1,1,1,0,1,1,1,1
1998Q1,1,1,,1,1,1,,1,1,1,1,,0,1,1,,,1,,1,1,1,0,1,0,1,1,1,1,1,0,1,1,1,1
1998Q2,1,1,,1,1,1,,1,1,1,1,,0,1,0,,,1,,1,1,1,0,1,0,1,1,1,1,1,1,1,1,1,1
1998Q3,1,1,,1,1,1,,1,1,1,1,,0,1,0,,,1,,1,1,1,0,1,0,1,1,1,1,1,1,1,1,1,1
1998Q4,1,1,,1,1,1,,1,1,1,1,,0,1,0,,,1,,1,1,1,0,1,0,1,1,1,1,1,1,1,1,1,1
1999Q1,1,1,,1,1,1,,1,1,1,1,,1,1,1,,,1,,1,1,1,0,1,0,1,1,1,1,1,1,1,1,1,1
1999Q2,1,1,,1,1,1,,1,1,1,1,,1,1,1,,,1,,1,1,1,0,1,0,1,1,1,1,1,1,1,1,1,1
1999Q3,1,1,,1,1,1,,1,1,1,1,,1,1,1,,,1,,1,1,1,1,1,0,1,1,1,1,1,1,1,1,1,1
1999Q4,1,1,,1,1,1,,1,1,1,1,,1,1,1,,,1,,1,1,1,1,1,0,1,1,1,1,1,1,1,1,1,1
2000Q1,1,1,1,1,1,1,1,1,1,1,1,0,1,1,1,,1,1,1,1,1,1,1,1,0,1,1,1,1,1,1,1,1,1,1
2000Q2,1,1,1,1,1,1,1,1,1,1,1,0,1,1,1,,1,1,1,1,1,1,1,1,0,1,1,1,1,1,1,1,1,1,1
2000Q3,1,1,1,1,1,1,1,1,1,1,1,0,1,1,1,,1,1,1,1,1,1,1,1,0,1,1,1,1,1,1,1,1,1,1
2000Q4,1,1,1,1,1,1,1,1,1,1,1,0,1,1,1,,1,1,1,1,1,1,1,1,0,1,1,1,1,1,0,1,1,1,1
2001Q1,1,1,1,1,1,1,1,1,1,1,1,0,1,1,1,,1,1,0,1,0,1,1,1,0,1,1,1,1,1,0,1,1,1,1
2001Q2,1,0,1,1,1,1,1,1,1,1,1,0,0,1,1,,1,1,0,1,0,1,1,1,0,1,1,1,1,1,1,1,1,1,1
2001Q3,1,0,1,1,1,1,1,1,1,1,1,0,0,1,1,,1,1,0,1,0,1,1,1,0,1,1,1,1,1,1,1,1,1,1
2001Q4,1,0,1,1,1,1,1,1,1,1,1,0,0,1,1,,1,1,0,1,1,1,1,1,0,1,1,1,1,1,1,1,1,1,1
2002Q1,1,1,1,1,1,1,1,1,1,1,1,0,1,1,1,,1,1,1,1,1,1,1,1,0,1,1,1,1,1,1,1,1,1,1
2002Q2,1,1,1,1,1,1,1,1,1,1,1,0,1,1,1,,1,1,1,1,1,0,1,1,0,1,1,1,1,1,1,1,1,1,1
2002Q3,1,1,1,1,1,1,1,1,1,1,1,0,1,1,1,,0,1,1,1,1,0,1,1,0,1,1,1,1,0,1,0,1,1,0
2002Q4,1,1,1,1,1,0,1,1,1,1,1,0,1,1,1,,0,1,1,1,1,0,1,1,0,1,1,1,1,0,1,0,1,1,0
2003Q1,1,1,1,1,1,0,1,1,1,1,1,0,0,1,1,,0,1,1,1,1,0,1,1,0,1,1,1,1,0,1,0,1,1,0
2003Q2,1,1,1,1,1,1,1,1,1,1,1,0,0,1,1,,1,1,1,1,1,0,1,1,0,1,1,1,1,0,1,0,1,1,0
2003Q3,1,1,1,1,1,1,1,1,1,1,1,0,1,1,1,,1,1,1,1,1,1,1,1,0,1,1,1,1,1,1,1,1,1,1
2003Q4,1,1,1,1,1,1,1,1,1,1,1,0,1,1,1,,1,1,1,1,1,1,1,1,0,1,1,1,1,1,1,1,1,1,1
2004Q1,1,1,1,1,1,1,1,1,1,1,1,0,1,1,1,,1,1,0,1,1,1,1,1,0,1,1,1,1,1,1,1,1,1,1
2004Q2,1,1,1,1,1,1,1,1,1,1,1,0,1,1,1,,1,1,0,1,1,1,1,1,0,1,1,1,1,1,1,1,1,1,1
2004Q3,1,1,1,1,1,0,1,1,1,1,1,0,1,1,1,,1,1,1,1,1,1,1,1,0,1,1,1,1,1,1,1,1,1,1
2004Q4,1,1,1,1,1,0,1,1,0,1,1,0,1,1,1,,1,1,1,1,1,1,1,1,0,1,1,1,1,1,1,1,1,1,1
2005Q1,1,1,1,1,1,0,1,1,0,1,1,0,1,1,1,1,1,1,1,1,1,1,1,1,0,1,1,1,1,1,1,1,1,1,1
2005Q2,1,1,1,1,1,1,1,1,1,1,1,0,1,1,1,1,1,1,1,1,1,1,1,1,0,1,1,1,1,1,1,1,1,1,1
2005Q3,1,1,1,1,1,1,1,1,1,1,1,0,1,1,1,1,1,1,1,1,1,1,1,1,0,1,1,1,1,1,1,1,1,1,1
2005Q4,1,1,1,1,1,1,1,1,1,1,1,0,1,1,1,1,1,1,1,1,1,1,1,1,0,1,1,1,1,1,0,1,1,1,1
2006Q1,1,1,1,1,1,1,1,1,1,1,1,0,1,1,1,1,1,1,1,1,1,1,1,1,0,1,1,1,1,1,0,1,1,1,1
2006Q2,1,1,1,1,1,1,1,1,1,1,1,0,1,1,1,1,1,1,1,1,1,1,1,1,0,1,1,1,1,1,1,1,1,1,1
2006Q3,1,1,1,1,0,1,1,1,1,1,1,0,1,1,1,1,1,1,1,1,1,1,1,1,0,1,1,1,1,1,1,1,1,1,1
2006Q4,1,1,1,1,0,1,1,1,1,1,1,0,1,1,1,1,1,1,1,1,1,1,1,1,0,1,1,1,1,1,1,1,1,1,1
2007Q1,1,1,1,1,0,1,1,1,1,1,1,0,1,1,1,1,1,0,1,1,1,1,1,1,0,1,1,1,1,1,1,1,1,1,1
2007Q2,1,1,1,1,0,1,1,1,1,1,1,0,1,1,1,1,1,0,1,1,1,1,1,1,0,1,1,1,1,1,1,1,1,1,1
2007Q3,1,1,1,1,1,1,1,1,0,1,1,0,1,1,1,1,1,1,1,1,1,1,1,1,0,1,1,1,1,1,1,1,1,1,1
2007Q4,1,1,1,1,1,1,0,1,0,1,1,0,1,1,0,1,1,1,1,1,1,1,1,1,0,1,1,1,1,1,1,1,1,1,1
2008Q1,1,1,1,1,0,1,0,0,0,1,1,0,1,1,0,1,1,1,1,1,1,1,1,1,0,0,0,1,1,1,0,0,0,1,1
2008Q2,0,1,1,1,0,0,0,0,0,1,0,0,0,1,0,1,0,1,1,0,0,0,1,1,0,0,0,0,0,1,0,0,0,0,1
2008Q3,0,0,1,1,0,0,0,0,0,0,0,0,0,1,0,0,0,0,1,0,0,0,1,0,0,0,0,0,0,1,0,0,0,0,0
2008Q4,0,0,1,0,0,0,0,0,0,0,0,0,0,1,0,0,0,0,0,0,0,0,0,0,0,0,0,0,0,0,0,0,0,0,0
2009Q1,0,0,0,0,0,0,0,0,0,0,0,0,0,0,0,0,0,0,0,0,0,0,0,0,0,0,0,0,0,0,0,0,0,0,0
2009Q2,0,1,0,0,0,1,0,0,0,0,0,0,0,0,0,0,0,0,1,0,0,1,0,0,0,0,0,0,0,0,0,0,0,0,0
2009Q3,1,1,0,1,1,1,0,0,0,0,1,0,1,0,0,0,1,0,1,1,1,1,0,1,0,1,0,1,1,1,0,1,1,1,1
2009Q4,1,1,0,1,1,1,1,0,0,0,1,0,1,0,1,0,1,1,1,1,1,1,0,1,0,1,1,1,1,1,0,1,1,1,1
2010Q1,1,1,1,1,1,1,1,1,0,1,1,0,1,1,1,1,1,1,1,1,1,1,0,1,0,1,1,1,1,1,0,1,1,1,1
2010Q2,1,1,1,1,1,1,1,1,0,1,1,0,1,1,1,1,1,1,1,1,1,1,0,1,0,1,1,1,1,1,1,0,1,1,1
2010Q3,1,1,1,1,1,1,1,1,0,1,1,0,1,1,1,1,1,1,1,1,1,1,0,1,0,1,1,1,1,1,1,0,1,1,1
2010Q4,1,1,1,1,1,1,1,1,0,0,1,0,1,1,1,1,1,1,1,1,1,0,1,1,0,1,1,1,1,1,1,1,1,1,1
2011Q1,1,1,1,1,1,1,1,1,0,0,1,0,1,1,1,1,1,1,1,1,1,0,1,1,0,1,1,1,1,1,1,1,1,1,1
2011Q2,1,1,1,1,1,1,1,1,0,0,1,0,1,1,1,1,1,1,1,0,1,0,1,1,0,1,1,1,1,1,1,1,1,1,1
2011Q3,1,1,1,1,0,1,1,1,0,0,1,0,0,0,1,1,1,1,1,0,1,0,1,0,0,1,1,1,1,1,1,1,1,1,1
2011Q4,0,1,1,0,0,1,1,1,0,0,1,0,0,0,1,1,1,1,1,0,1,0,1,0,0,1,0,1,0,1,1,1,1,1,1
2012Q1,0,1,1,0,0,1,1,1,0,0,1,0,0,0,1,1,1,0,1,0,1,0,1,0,0,1,0,1,0,1,1,1,1,1,1
2012Q2,0,0,1,0,0,1,1,1,0,0,0,0,0,0,1,1,1,0,1,0,0,0,1,0,0,0,0,1,0,1,1,1,1,1,1
2012Q3,0,0,0,0,0,1,1,1,0,0,0,0,0,0,1,1,1,0,1,0,0,0,1,0,0,0,0,1,0,1,1,1,1,1,1
2012Q4,0,0,0,0,0,0,1,1,0,0,0,0,0,0,1,1,1,0,1,0,0,0,1,0,0,0,0,1,0,1,1,1,1,1,1
2013Q1,0,0,1,0,0,0,1,1,0,0,1,0,0,0,1,1,1,1,1,0,0,1,1,1,0,1,1,1,0,1,1,1,1,1,1
2013Q2,1,1,1,1,0,1,1,1,0,0,1,0,0,0,1,1,1,1,1,0,1,1,1,1,0,1,1,1,1,1,1,1,1,1,1
2013Q3,1,1,1,1,1,1,1,1,0,1,1,0,0,0,1,1,1,1,1,1,1,1,1,1,0,1,1,1,1,1,1,1,1,1,1
2013Q4,1,1,1,1,1,1,1,1,0,1,1,0,0,0,1,1,1,1,1,1,1,1,1,1,0,0,1,1,1,1,1,1,1,1,1
2014Q1,1,1,1,1,1,1,1,1,1,1,0,0,0,0,1,1,1,1,1,1,1,0,1,1,0,0,1,1,1,1,0,1,1,1,1
2014Q2,1,1,1,1,1,0,1,1,1,1,0,0,0,0,1,1,1,1,1,1,0,0,1,1,0,1,1,1,1,1,0,1,1,1,1
2014Q3,1,1,1,1,1,0,1,1,1,1,0,0,0,0,1,1,1,1,1,1,0,0,1,1,0,1,1,1,1,1,0,1,1,1,1
