Row,CH_SA,UK_SA,Finland,Sweden,Norway,USA,France,Germany,EA_19,EU_28,Greece,Portugal,Italy,Spain,Hungary,Czech_Republic,Romania,Bulgaria
1975Q1,NaN,0,NaN,NaN,NaN,1,NaN,NaN,NaN,NaN,NaN,NaN,NaN,NaN,NaN,NaN,NaN,NaN
1975Q2,NaN,0,NaN,NaN,NaN,1,NaN,NaN,NaN,NaN,NaN,NaN,NaN,NaN,NaN,NaN,NaN,NaN
1975Q3,NaN,0,NaN,NaN,NaN,1,NaN,NaN,NaN,NaN,NaN,NaN,NaN,NaN,NaN,NaN,NaN,NaN
1975Q4,NaN,1,NaN,NaN,NaN,1,NaN,NaN,NaN,NaN,NaN,NaN,NaN,NaN,NaN,NaN,NaN,NaN
1976Q1,NaN,1,NaN,NaN,NaN,1,NaN,NaN,NaN,NaN,NaN,NaN,NaN,NaN,NaN,NaN,NaN,NaN
1976Q2,NaN,1,NaN,NaN,NaN,1,NaN,NaN,NaN,NaN,NaN,NaN,NaN,NaN,NaN,NaN,NaN,NaN
1976Q3,NaN,1,NaN,NaN,NaN,1,NaN,NaN,NaN,NaN,NaN,NaN,NaN,NaN,NaN,NaN,NaN,NaN
1976Q4,NaN,1,NaN,NaN,NaN,1,NaN,NaN,NaN,NaN,NaN,NaN,NaN,NaN,NaN,NaN,NaN,NaN
1977Q1,NaN,1,NaN,NaN,NaN,1,NaN,NaN,NaN,NaN,NaN,NaN,NaN,NaN,NaN,NaN,NaN,NaN
1977Q2,NaN,1,NaN,NaN,NaN,1,NaN,NaN,NaN,NaN,NaN,NaN,NaN,NaN,NaN,NaN,NaN,NaN
1977Q3,NaN,1,NaN,NaN,NaN,1,NaN,NaN,NaN,NaN,NaN,NaN,NaN,NaN,NaN,NaN,NaN,NaN
1977Q4,NaN,1,NaN,NaN,NaN,1,NaN,NaN,NaN,NaN,NaN,NaN,NaN,NaN,NaN,NaN,NaN,NaN
1978Q1,NaN,1,NaN,NaN,NaN,1,NaN,NaN,NaN,NaN,NaN,NaN,NaN,NaN,NaN,NaN,NaN,NaN
1978Q2,NaN,1,NaN,NaN,NaN,1,NaN,NaN,NaN,NaN,NaN,NaN,NaN,NaN,NaN,NaN,NaN,NaN
1978Q3,NaN,1,NaN,NaN,NaN,1,NaN,NaN,NaN,NaN,NaN,NaN,NaN,NaN,NaN,NaN,NaN,NaN
1978Q4,NaN,1,NaN,NaN,NaN,1,NaN,NaN,NaN,NaN,NaN,NaN,NaN,NaN,NaN,NaN,NaN,NaN
1979Q1,NaN,1,NaN,NaN,NaN,1,NaN,NaN,NaN,NaN,NaN,NaN,NaN,NaN,NaN,NaN,NaN,NaN
1979Q2,NaN,1,NaN,NaN,NaN,1,NaN,NaN,NaN,NaN,NaN,NaN,NaN,NaN,NaN,NaN,NaN,NaN
1979Q3,NaN,0,NaN,NaN,NaN,1,NaN,NaN,NaN,NaN,NaN,NaN,NaN,NaN,NaN,NaN,NaN,NaN
1979Q4,NaN,0,NaN,NaN,NaN,1,NaN,NaN,NaN,NaN,NaN,NaN,NaN,NaN,NaN,NaN,NaN,NaN
1980Q1,1,0,NaN,NaN,NaN,1,0,NaN,NaN,NaN,NaN,NaN,NaN,NaN,NaN,NaN,NaN,NaN
1980Q2,1,0,NaN,NaN,NaN,0,0,NaN,NaN,NaN,NaN,NaN,NaN,NaN,NaN,NaN,NaN,NaN
1980Q3,1,0,NaN,NaN,NaN,0,0,NaN,NaN,NaN,NaN,NaN,NaN,NaN,NaN,NaN,NaN,NaN
1980Q4,1,0,NaN,NaN,NaN,1,0,NaN,NaN,NaN,NaN,NaN,NaN,NaN,NaN,NaN,NaN,NaN
1981Q1,1,0,NaN,NaN,NaN,1,1,NaN,NaN,NaN,NaN,NaN,NaN,NaN,NaN,NaN,NaN,NaN
1981Q2,1,1,NaN,NaN,NaN,1,1,NaN,NaN,NaN,NaN,NaN,NaN,NaN,NaN,NaN,NaN,NaN
1981Q3,1,1,NaN,NaN,NaN,1,1,NaN,NaN,NaN,NaN,NaN,NaN,NaN,NaN,NaN,NaN,NaN
1981Q4,1,1,NaN,NaN,NaN,0,1,NaN,NaN,NaN,NaN,NaN,NaN,NaN,NaN,NaN,NaN,NaN
1982Q1,0,1,NaN,NaN,NaN,0,1,NaN,NaN,NaN,NaN,NaN,NaN,NaN,NaN,NaN,NaN,NaN
1982Q2,0,1,NaN,NaN,NaN,1,1,NaN,NaN,NaN,NaN,NaN,NaN,NaN,NaN,NaN,NaN,NaN
1982Q3,0,1,NaN,NaN,NaN,1,1,NaN,NaN,NaN,NaN,NaN,NaN,NaN,NaN,NaN,NaN,NaN
1982Q4,0,1,NaN,NaN,NaN,1,1,NaN,NaN,NaN,NaN,NaN,NaN,NaN,NaN,NaN,NaN,NaN
1983Q1,1,1,NaN,NaN,NaN,1,1,NaN,NaN,NaN,NaN,NaN,NaN,NaN,NaN,NaN,NaN,NaN
1983Q2,1,1,NaN,NaN,NaN,1,1,NaN,NaN,NaN,NaN,NaN,NaN,NaN,NaN,NaN,NaN,NaN
1983Q3,1,1,NaN,NaN,NaN,1,1,NaN,NaN,NaN,NaN,NaN,NaN,NaN,NaN,NaN,NaN,NaN
1983Q4,1,1,NaN,NaN,NaN,1,1,NaN,NaN,NaN,NaN,NaN,NaN,NaN,NaN,NaN,NaN,NaN
1984Q1,1,1,NaN,NaN,NaN,1,1,NaN,NaN,NaN,NaN,NaN,NaN,NaN,NaN,NaN,NaN,NaN
1984Q2,1,1,NaN,NaN,NaN,1,1,NaN,NaN,NaN,NaN,NaN,NaN,NaN,NaN,NaN,NaN,NaN
1984Q3,1,1,NaN,NaN,NaN,1,1,NaN,NaN,NaN,NaN,NaN,NaN,NaN,NaN,NaN,NaN,NaN
1984Q4,1,1,NaN,NaN,NaN,1,1,NaN,NaN,NaN,NaN,NaN,NaN,NaN,NaN,NaN,NaN,NaN
1985Q1,1,1,NaN,NaN,NaN,1,1,NaN,NaN,NaN,NaN,NaN,NaN,NaN,NaN,NaN,NaN,NaN
1985Q2,1,1,NaN,NaN,NaN,1,1,NaN,NaN,NaN,NaN,NaN,NaN,NaN,NaN,NaN,NaN,NaN
1985Q3,1,1,NaN,NaN,NaN,1,1,NaN,NaN,NaN,NaN,NaN,NaN,NaN,NaN,NaN,NaN,NaN
1985Q4,1,1,NaN,NaN,NaN,1,1,NaN,NaN,NaN,NaN,NaN,NaN,NaN,NaN,NaN,NaN,NaN
1986Q1,1,1,NaN,NaN,NaN,1,1,NaN,NaN,NaN,NaN,NaN,NaN,NaN,NaN,NaN,NaN,NaN
1986Q2,1,1,NaN,NaN,NaN,1,1,NaN,NaN,NaN,NaN,NaN,NaN,NaN,NaN,NaN,NaN,NaN
1986Q3,0,1,NaN,NaN,NaN,1,1,NaN,NaN,NaN,NaN,NaN,NaN,NaN,NaN,NaN,NaN,NaN
1986Q4,0,1,NaN,NaN,NaN,1,1,NaN,NaN,NaN,NaN,NaN,NaN,NaN,NaN,NaN,NaN,NaN
1987Q1,1,1,NaN,NaN,NaN,1,1,NaN,NaN,NaN,NaN,NaN,NaN,NaN,NaN,NaN,NaN,NaN
1987Q2,1,1,NaN,NaN,NaN,1,1,NaN,NaN,NaN,NaN,NaN,NaN,NaN,NaN,NaN,NaN,NaN
1987Q3,1,1,NaN,NaN,NaN,1,1,NaN,NaN,NaN,NaN,NaN,NaN,NaN,NaN,NaN,NaN,NaN
1987Q4,1,1,NaN,NaN,NaN,1,1,NaN,NaN,NaN,NaN,NaN,NaN,NaN,NaN,NaN,NaN,NaN
1988Q1,1,1,NaN,NaN,NaN,1,1,NaN,NaN,NaN,NaN,NaN,NaN,NaN,NaN,NaN,NaN,NaN
1988Q2,1,1,NaN,NaN,NaN,1,1,NaN,NaN,NaN,NaN,NaN,NaN,NaN,NaN,NaN,NaN,NaN
1988Q3,1,1,NaN,NaN,NaN,1,1,NaN,NaN,NaN,NaN,NaN,NaN,NaN,NaN,NaN,NaN,NaN
1988Q4,1,1,NaN,NaN,NaN,1,1,NaN,NaN,NaN,NaN,NaN,NaN,NaN,NaN,NaN,NaN,NaN
1989Q1,1,1,NaN,NaN,NaN,1,1,NaN,NaN,NaN,NaN,NaN,NaN,NaN,NaN,NaN,NaN,NaN
1989Q2,1,1,NaN,NaN,NaN,1,1,NaN,NaN,NaN,NaN,NaN,NaN,NaN,NaN,NaN,NaN,NaN
1989Q3,1,1,NaN,NaN,NaN,1,1,NaN,NaN,NaN,NaN,NaN,NaN,NaN,NaN,NaN,NaN,NaN
1989Q4,1,1,NaN,NaN,NaN,1,1,NaN,NaN,NaN,NaN,NaN,NaN,NaN,NaN,NaN,NaN,NaN
1990Q1,1,1,0,NaN,NaN,1,1,NaN,NaN,NaN,NaN,NaN,NaN,NaN,NaN,NaN,NaN,NaN
1990Q2,1,1,0,NaN,NaN,1,1,NaN,NaN,NaN,NaN,NaN,NaN,NaN,NaN,NaN,NaN,NaN
1990Q3,0,0,0,NaN,NaN,1,1,NaN,NaN,NaN,NaN,NaN,NaN,NaN,NaN,NaN,NaN,NaN
1990Q4,0,0,0,NaN,NaN,0,0,NaN,NaN,NaN,NaN,NaN,NaN,NaN,NaN,NaN,NaN,NaN
1991Q1,0,0,0,NaN,NaN,0,0,0,NaN,NaN,NaN,NaN,NaN,NaN,NaN,NaN,NaN,NaN
1991Q2,0,0,0,NaN,NaN,1,1,0,NaN,NaN,NaN,NaN,NaN,NaN,NaN,NaN,NaN,NaN
1991Q3,0,0,0,NaN,NaN,1,1,0,NaN,NaN,NaN,NaN,NaN,NaN,NaN,NaN,NaN,NaN
1991Q4,1,1,0,NaN,NaN,1,1,1,NaN,NaN,NaN,NaN,NaN,NaN,NaN,NaN,NaN,NaN
1992Q1,1,1,0,NaN,NaN,1,1,1,NaN,NaN,NaN,NaN,NaN,NaN,NaN,NaN,NaN,NaN
1992Q2,0,1,0,NaN,NaN,1,0,0,NaN,NaN,NaN,NaN,NaN,NaN,NaN,NaN,NaN,NaN
1992Q3,0,1,0,NaN,NaN,1,0,0,NaN,NaN,NaN,NaN,NaN,NaN,NaN,NaN,NaN,NaN
1992Q4,0,1,0,NaN,NaN,1,0,0,NaN,NaN,NaN,NaN,NaN,NaN,NaN,NaN,NaN,NaN
1993Q1,0,1,0,1,NaN,1,0,0,NaN,NaN,NaN,NaN,NaN,NaN,NaN,NaN,NaN,NaN
1993Q2,1,1,1,1,NaN,1,1,1,NaN,NaN,NaN,NaN,NaN,NaN,NaN,NaN,NaN,NaN
1993Q3,1,1,1,1,NaN,1,1,1,NaN,NaN,NaN,NaN,NaN,NaN,NaN,NaN,NaN,NaN
1993Q4,1,1,1,1,NaN,1,1,1,NaN,NaN,NaN,NaN,NaN,NaN,NaN,NaN,NaN,NaN
1994Q1,1,1,1,1,NaN,1,1,1,NaN,NaN,NaN,NaN,NaN,NaN,NaN,NaN,NaN,NaN
1994Q2,1,1,1,1,NaN,1,1,1,NaN,NaN,NaN,NaN,NaN,NaN,NaN,NaN,NaN,NaN
1994Q3,1,1,1,1,NaN,1,1,1,NaN,NaN,NaN,NaN,NaN,NaN,NaN,NaN,NaN,NaN
1994Q4,1,1,1,1,NaN,1,1,1,NaN,NaN,NaN,NaN,NaN,NaN,NaN,NaN,NaN,NaN
1995Q1,1,1,1,1,1,1,1,1,1,1,1,1,1,1,0,NaN,1,NaN
1995Q2,1,1,1,1,1,1,1,1,1,1,1,1,1,1,0,NaN,1,NaN
1995Q3,1,1,1,1,1,1,1,1,1,1,1,1,1,1,0,NaN,1,NaN
1995Q4,1,1,1,1,1,1,1,0,1,1,1,1,1,1,0,NaN,1,NaN
1996Q1,1,1,1,1,1,1,1,0,1,1,1,1,1,1,1,1,1,NaN
1996Q2,0,1,1,1,1,1,1,1,1,1,1,1,0,1,1,1,1,NaN
1996Q3,0,1,1,1,1,1,1,1,1,1,1,1,0,1,1,1,1,NaN
1996Q4,1,1,1,1,1,1,1,1,1,1,1,1,0,1,1,0,0,NaN
1997Q1,1,1,1,1,1,1,1,1,1,1,1,1,1,1,1,0,0,NaN
1997Q2,1,1,1,1,1,1,1,1,1,1,1,1,1,1,1,0,0,NaN
1997Q3,1,1,1,1,1,1,1,1,1,1,1,1,1,1,1,0,0,NaN
1997Q4,1,1,1,1,1,1,1,1,1,1,1,1,1,1,1,0,0,NaN
1998Q1,1,1,1,1,1,1,1,1,1,1,1,1,0,1,1,1,0,NaN
1998Q2,1,1,1,1,1,1,1,1,1,1,1,1,0,1,1,1,0,NaN
1998Q3,1,1,1,1,1,1,1,1,1,1,1,1,0,1,1,1,0,NaN
1998Q4,1,1,1,1,1,1,1,1,1,1,1,1,0,1,1,1,0,NaN
1999Q1,1,1,1,1,1,1,1,1,1,1,1,1,1,1,1,1,0,NaN
1999Q2,1,1,1,1,1,1,1,1,1,1,1,1,1,1,1,1,0,NaN
1999Q3,1,1,1,1,1,1,1,1,1,1,1,1,1,1,1,1,1,NaN
1999Q4,1,1,1,1,1,1,1,1,1,1,1,1,1,1,1,1,1,NaN
2000Q1,1,1,1,1,1,1,1,1,1,1,1,1,1,1,1,1,1,1
2000Q2,1,1,1,1,1,1,1,1,1,1,1,1,1,1,1,1,1,1
2000Q3,1,1,1,1,1,1,1,1,1,1,1,1,1,1,1,1,1,1
2000Q4,1,1,1,1,1,1,1,1,1,1,1,1,1,1,1,1,1,1
2001Q1,1,1,1,1,1,1,1,1,1,1,1,1,1,1,1,1,1,1
2001Q2,1,1,1,1,1,1,1,1,1,1,1,1,0,1,1,1,1,1
2001Q3,1,1,1,1,1,1,1,1,1,1,1,1,0,1,1,1,1,1
2001Q4,1,1,1,1,1,1,1,1,1,1,1,1,0,1,1,1,1,1
2002Q1,1,1,1,1,1,1,1,1,1,1,1,1,1,1,1,1,1,1
2002Q2,1,1,1,1,1,1,1,1,1,1,1,0,1,1,1,1,1,1
2002Q3,0,1,1,1,0,1,1,1,1,1,1,0,1,1,1,1,1,1
2002Q4,0,1,1,1,0,1,1,0,1,1,1,0,1,1,1,1,1,1
2003Q1,0,1,1,1,0,1,1,0,1,1,1,0,0,1,1,1,1,1
2003Q2,0,1,1,1,0,1,1,1,1,1,1,0,0,1,1,1,1,1
2003Q3,1,1,1,1,1,1,1,1,1,1,1,1,1,1,1,1,1,1
2003Q4,1,1,1,1,1,1,1,1,1,1,1,1,1,1,1,1,1,1
2004Q1,1,1,1,1,1,1,1,1,1,1,1,1,1,1,1,1,1,1
2004Q2,1,1,1,1,1,1,1,1,1,1,1,1,1,1,1,1,1,1
2004Q3,1,1,1,1,1,1,1,0,1,1,1,1,1,1,1,1,1,1
2004Q4,1,1,1,1,1,1,1,0,1,1,0,1,1,1,1,1,1,1
2005Q1,1,1,1,1,1,1,1,0,1,1,0,1,1,1,1,1,1,1
2005Q2,1,1,1,1,1,1,1,1,1,1,1,1,1,1,1,1,1,1
2005Q3,1,1,1,1,1,1,1,1,1,1,1,1,1,1,1,1,1,1
2005Q4,1,1,1,1,1,1,1,1,1,1,1,1,1,1,1,1,1,1
2006Q1,1,1,1,1,1,1,1,1,1,1,1,1,1,1,1,1,1,1
2006Q2,1,1,1,1,1,1,1,1,1,1,1,1,1,1,1,1,1,1
2006Q3,1,1,1,1,1,1,1,1,1,1,1,1,1,1,1,1,1,1
2006Q4,1,1,1,1,1,1,1,1,1,1,1,1,1,1,1,1,1,1
2007Q1,1,1,1,1,1,1,1,1,1,1,1,1,1,1,0,1,1,1
2007Q2,1,1,1,1,1,1,1,1,1,1,1,1,1,1,0,1,1,1
2007Q3,1,1,1,1,1,1,1,1,1,1,0,1,1,1,1,1,1,1
2007Q4,1,1,1,1,1,1,1,1,1,1,0,1,1,1,1,1,1,1
2008Q1,1,1,0,0,0,0,1,1,1,1,0,1,1,1,1,1,1,1
2008Q2,1,0,0,0,0,0,0,0,0,0,0,0,0,1,1,1,1,1
2008Q3,0,0,0,0,0,0,0,0,0,0,0,0,0,0,0,1,1,1
2008Q4,0,0,0,0,0,0,0,0,0,0,0,0,0,0,0,0,0,1
2009Q1,0,0,0,0,0,0,0,0,0,0,0,0,0,0,0,0,0,0
2009Q2,0,0,0,0,0,0,0,1,0,0,0,1,0,0,0,0,0,0
2009Q3,1,1,1,0,1,1,1,1,1,1,0,1,1,0,0,1,0,0
2009Q4,1,1,1,1,1,1,1,1,1,1,0,1,1,0,1,1,0,0
2010Q1,1,1,1,1,1,1,1,1,1,1,0,1,1,1,1,1,0,1
2010Q2,1,1,1,1,0,1,1,1,1,1,0,1,1,1,1,1,0,1
2010Q3,1,1,1,1,0,1,1,1,1,1,0,1,1,1,1,1,0,1
2010Q4,1,1,1,1,1,1,1,1,1,1,0,0,1,0,1,1,1,1
2011Q1,1,1,1,1,1,1,1,1,1,1,0,0,1,0,1,1,1,1
2011Q2,1,1,1,1,1,1,1,1,1,1,0,0,1,0,1,1,1,1
2011Q3,1,1,1,1,1,1,1,1,1,1,0,0,0,0,1,1,1,1
2011Q4,1,1,1,0,1,1,1,1,0,0,0,0,0,0,1,0,1,1
2012Q1,1,1,1,0,1,1,1,1,0,0,0,0,0,0,0,0,1,1
2012Q2,1,1,0,0,1,1,0,1,0,0,0,0,0,0,0,0,1,1
2012Q3,1,1,0,0,1,1,0,1,0,0,0,0,0,0,0,0,1,0
2012Q4,1,1,0,0,1,1,0,0,0,0,0,0,0,0,0,0,1,0
2013Q1,1,1,1,1,1,1,1,0,0,0,0,1,0,0,1,0,1,1
2013Q2,1,1,1,1,1,1,1,1,1,1,0,1,0,0,1,1,1,1
2013Q3,1,1,1,1,1,1,1,1,1,1,0,1,0,1,1,1,1,1
2013Q4,1,1,0,1,1,1,1,1,1,1,0,1,0,1,1,1,1,1
2014Q1,1,1,0,1,1,1,0,1,1,1,1,0,0,1,1,1,1,1
2014Q2,1,1,1,1,1,1,0,0,1,1,1,0,0,1,1,1,1,1
2014Q3,1,1,1,1,1,1,0,0,1,1,1,0,0,1,1,1,1,1
