\relax 
\providecommand\hyper@newdestlabel[2]{}
\bibstyle{elsarticle-harv}
\providecommand\HyperFirstAtBeginDocument{\AtBeginDocument}
\HyperFirstAtBeginDocument{\ifx\hyper@anchor\@undefined
\global\let\oldcontentsline\contentsline
\gdef\contentsline#1#2#3#4{\oldcontentsline{#1}{#2}{#3}}
\global\let\oldnewlabel\newlabel
\gdef\newlabel#1#2{\newlabelxx{#1}#2}
\gdef\newlabelxx#1#2#3#4#5#6{\oldnewlabel{#1}{{#2}{#3}}}
\AtEndDocument{\ifx\hyper@anchor\@undefined
\let\contentsline\oldcontentsline
\let\newlabel\oldnewlabel
\fi}
\fi}
\global\let\hyper@last\relax 
\gdef\HyperFirstAtBeginDocument#1{#1}
\providecommand\HyField@AuxAddToFields[1]{}
\providecommand\HyField@AuxAddToCoFields[2]{}
\emailauthor{grigorasveaceslav@yahoo.com}{Veaceslav Grigora\c {s}\corref {cor1}}
\emailauthor{stanciuirinaeusignia@yahoo.com}{Irina Eusignia Stanciu}
\Newlabel{t1}{1}
\Newlabel{cor1}{1}
\Newlabel{ase}{a}
\Newlabel{bnr}{b}
\citation{Mandalinci2015}
\citation{mitc27}
\citation{Krolzig2001,Darvas2008,Einarsson2013,Antonakakis2014}
\citation{Mundell1961}
\citation{McKinnon1963}
\citation{Furceri2008}
\citation{Frankel1998}
\citation{Sapir1998}
\citation{Baldwin2015}
\@writefile{toc}{\contentsline {section}{\numberline {1}Introduction}{2}{section.1}}
\citation{Artis1997a}
\citation{Krolzig2001}
\citation{Darvas2008,Furceri2008,Antonakakis2014}
\citation{Artis1997,Artis1999}
\citation{Giannone2009}
\@writefile{toc}{\contentsline {section}{\numberline {2}Literature review}{3}{section.2}}
\citation{Artis2004}
\citation{Giannone2009}
\citation{Artis2004}
\citation{Harding2005}
\citation{Krolzig2001,Furceri2008,Giannone2009}
\citation{Artis1997a,Artis1997,Artis1999,Savva2010,Artis2004,Harding2006}
\citation{Darvas2008}
\citation{Einarsson2013}
\citation{Stock2014}
\citation{Antonakakis2014}
\citation{burn46}
\citation{Hall2001}
\citation{Giannone2009}
\citation{burn46}
\citation{Mintz1969}
\citation{burn46}
\citation{Harding2006}
\citation{Krolzig2001}
\citation{Artis1997a}
\citation{McDermott2000}
\citation{Prescott1986}
\citation{Artis1997a}
\citation{Pagan1997a,Pagan1997}
\citation{Harding2002}
\citation{Krolzig2001}
\citation{Hamilton1989}
\@writefile{toc}{\contentsline {section}{\numberline {3}Methodology}{6}{section.3}}
\citation{Artis2004}
\citation{Bry1971}
\citation{Harding2002}
\citation{Bry1971}
\citation{Bry1971}
\citation{Harding2002}
\citation{McDermott2000}
\citation{Artis1997a}
\citation{Artis1999}
\citation{McDermott2000}
\citation{Harding2002}
\citation{Krolzig2001}
\citation{Harding2006}
\citation{Krolzig2001}
\citation{Camacho2005}
\citation{Giannone2009}
\citation{Darvas2008}
\citation{Artis1997,Artis1999}
\citation{Furceri2008}
\citation{Artis2004}
\citation{Giannone2009}
\citation{Giannone2009}
\@writefile{toc}{\contentsline {section}{\numberline {4}Data}{9}{section.4}}
\citation{Artis2004}
\@writefile{toc}{\contentsline {section}{\numberline {5}Results}{10}{section.5}}
\citation{Blanchard2007}
\@writefile{toc}{\contentsline {subsection}{\numberline {5.1}Business cycles' chronology}{11}{subsection.5.1}}
\@writefile{lof}{\contentsline {figure}{\numberline {1}{\ignorespaces Heatmap of the business cycles\relax }}{11}{figure.caption.1}}
\providecommand*\caption@xref[2]{\@setref\relax\@undefined{#1}}
\newlabel{fig:heatmap}{{1}{11}{Heatmap of the business cycles\relax }{figure.caption.1}{}}
\citation{Bednarzik1982}
\citation{Honkapohja1999}
\citation{Honkapohja1999}
\citation{Drees1998,Honkapohja2009}
\citation{Walsh1993}
\citation{BIS}
\citation{Einarsson2013}
\citation{Baldwin2015}
\citation{Nikkinen2012}
\citation{Atoyan2013}
\@writefile{toc}{\contentsline {subsection}{\numberline {5.2}Business cycle synchronisation}{14}{subsection.5.2}}
\citation{Harding1999}
\citation{Artis1997}
\citation{Artis1999}
\citation{McDermott2000}
\citation{Krolzig2001}
\@writefile{toc}{\contentsline {subsubsection}{\numberline {5.2.1}Concordance of the business cycles}{15}{subsubsection.5.2.1}}
\@writefile{lot}{\contentsline {table}{\numberline {1}{\ignorespaces Business cycle concordance index\relax }}{16}{table.caption.2}}
\newlabel{tab:bcci}{{1}{16}{Business cycle concordance index\relax }{table.caption.2}{}}
\citation{Harding2006}
\citation{Harding2006}
\@writefile{toc}{\contentsline {subsubsection}{\numberline {5.2.2}Correlation of the business cycles}{17}{subsubsection.5.2.2}}
\@writefile{lof}{\contentsline {figure}{\numberline {2}{\ignorespaces Business cycle state correlation coefficient\relax }}{18}{figure.caption.3}}
\newlabel{fig:scatter_rhofs}{{2}{18}{Business cycle state correlation coefficient\relax }{figure.caption.3}{}}
\@writefile{lot}{\contentsline {table}{\numberline {2}{\ignorespaces Business cycle states correlation\relax }}{19}{table.caption.4}}
\newlabel{tab:bcrho}{{2}{19}{Business cycle states correlation\relax }{table.caption.4}{}}
\@writefile{lot}{\contentsline {table}{\numberline {3}{\ignorespaces Maximum correlation coefficient\relax }}{21}{table.caption.5}}
\newlabel{tab:corr_lead_lag}{{3}{21}{Maximum correlation coefficient\relax }{table.caption.5}{}}
\citation{Artis1997}
\citation{Artis1997}
\citation{Atoyan2013}
\citation{Nikkinen2012}
\citation{Baldwin2015}
\@writefile{lof}{\contentsline {figure}{\numberline {3}{\ignorespaces Time variation in contemporaneous correlation\relax }}{23}{figure.caption.6}}
\newlabel{fig:scatter_rho_var2}{{3}{23}{Time variation in contemporaneous correlation\relax }{figure.caption.6}{}}
\citation{Krolzig2001}
\@writefile{toc}{\contentsline {subsubsection}{\numberline {5.2.3}The synchronisation of business cycle measures}{24}{subsubsection.5.2.3}}
\citation{Krolzig2001}
\citation{Camacho2005}
\@writefile{lot}{\contentsline {table}{\numberline {4}{\ignorespaces Business cycle measures\relax }}{25}{table.caption.7}}
\newlabel{tab:bcstats}{{4}{25}{Business cycle measures\relax }{table.caption.7}{}}
\citation{Nikkinen2012}
\citation{Camacho2005}
\citation{burn46}
\citation{Bry1971}
\citation{Harding2002}
\@writefile{toc}{\contentsline {section}{\numberline {6}Conclusions}{26}{section.6}}
\citation{burn46,Krolzig2001,Furceri2008,Giannone2009}
\citation{Harding2006}
\citation{Krolzig2001}
\bibdata{references}
\bibcite{Antonakakis2014}{{1}{2014}{{Antonakakis and Tondl}}{{}}}
\bibcite{Artis1999}{{2}{1999}{{Artis}}{{}}}
\bibcite{Artis2004}{{3}{2004}{{Artis et~al.}}{{Artis, Marcellino, and Proietti}}}
\bibcite{Artis1997}{{4}{1997}{{Artis and Zhang}}{{}}}
\bibcite{Artis1997a}{{5}{1997}{{Artis et~al.}}{{Artis, Kontolemis, and Osborn}}}
\bibcite{Atoyan2013}{{6}{2013}{{Atoyan et~al.}}{{Atoyan, Manning, and Rahman}}}
\bibcite{Baldwin2015}{{7}{2015}{{Baldwin et~al.}}{{Baldwin, Beck, Benassy-Quere, Blanchard, Corsetti, De~Grauwe, den Haan, Giavazzi, Gros, Kalemli-Ozcan, Micossi, Papaioannou, Pesenti, Pissarides, Tabellini, and Weder~di Mauro}}}
\bibcite{BIS}{{8}{2008}{{Bank for International Settlements}}{{}}}
\bibcite{Bednarzik1982}{{9}{1982}{{Bednarzik et~al.}}{{Bednarzik, Hewson, and Urquhart}}}
\bibcite{Blanchard2007}{{10}{2007}{{Blanchard and Gal{\'{\i }}}}{{}}}
\@writefile{toc}{\contentsline {section}{\numberline {7}References}{29}{section.7}}
\bibcite{Bry1971}{{11}{1971}{{Bry and Boschan}}{{}}}
\bibcite{burn46}{{12}{1946}{{Burns and Mitchell}}{{}}}
\bibcite{Sapir1998}{{13}{1998}{{Buti and Sapir}}{{}}}
\bibcite{Camacho2005}{{14}{2005}{{Camacho et~al.}}{{Camacho, Perez-Quiros, and Saiz}}}
\bibcite{Darvas2008}{{15}{2008}{{Darvas and Szap{\'{a}}ry}}{{}}}
\bibcite{DenHaan1997_pb}{{16}{1997}{{{Den Haan} and Levin}}{{}}}
\bibcite{Drees1998}{{17}{1998}{{Drees and Pazarbasioglu}}{{}}}
\bibcite{Einarsson2013}{{18}{2013}{{Einarsson et~al.}}{{Einarsson, Emilsson, Haraldsdottir, Petursson, and Sveinsdottir}}}
\bibcite{Frankel1998}{{19}{1998}{{Frankel and Rose}}{{}}}
\bibcite{Furceri2008}{{20}{2008}{{Furceri and Karras}}{{}}}
\bibcite{Giannone2009}{{21}{2009}{{Giannone et~al.}}{{Giannone, Lenza, and Reichlin}}}
\bibcite{Hall2001}{{22}{2001}{{Hall et~al.}}{{Hall, Feldstein, Brnanke, Frankel, Gordon, and Zarnowitz}}}
\bibcite{Hamilton1989}{{23}{1989}{{Hamilton}}{{}}}
\bibcite{Harding1999}{{24}{1999}{{Harding and Pagan}}{{}}}
\bibcite{Harding2002}{{25}{2002}{{Harding and Pagan}}{{}}}
\bibcite{Harding2005}{{26}{2005}{{Harding and Pagan}}{{}}}
\bibcite{Harding2006}{{27}{2006}{{Harding and Pagan}}{{}}}
\bibcite{Honkapohja2009}{{28}{2009}{{Honkapohja}}{{}}}
\bibcite{Honkapohja1999}{{29}{1999}{{Honkapohja and Koskela}}{{}}}
\bibcite{Krolzig2001}{{30}{2005}{{Krolzig and Toro}}{{}}}
\bibcite{Mandalinci2015}{{31}{2015}{{Mandalinci and Mumtaz}}{{}}}
\bibcite{McDermott2000}{{32}{2000}{{McDermott and Scott}}{{}}}
\bibcite{McKinnon1963}{{33}{1963}{{McKinnon}}{{}}}
\bibcite{Mintz1969}{{34}{1969}{{Mintz}}{{}}}
\bibcite{mitc27}{{35}{1927}{{Mitchell}}{{}}}
\bibcite{Mundell1961}{{36}{1961}{{Mundell}}{{}}}
\bibcite{Newey1987}{{37}{1987}{{Newey and West}}{{}}}
\bibcite{Nikkinen2012}{{38}{2012}{{Nikkinen et~al.}}{{Nikkinen, Piljak, and {\"{A}}ij{\"{o}}}}}
\bibcite{Pagan1997a}{{39}{1997{a}}{{Pagan}}{{}}}
\bibcite{Pagan1997}{{40}{1997{b}}{{Pagan}}{{}}}
\bibcite{Prescott1986}{{41}{1986}{{Prescott}}{{}}}
\bibcite{Savva2010}{{42}{2010}{{Savva et~al.}}{{Savva, Neanidis, and Osborn}}}
\bibcite{Stock2014}{{43}{2014}{{Stock and Watson}}{{}}}
\bibcite{Walsh1993}{{44}{1993}{{Walsh}}{{}}}
\@writefile{toc}{\contentsline {section}{\numberline {Appendix A}Data description}{34}{appendix.A}}
\newlabel{sect_apdx_data}{{Appendix A}{34}{Data description}{appendix.A}{}}
\@writefile{lot}{\contentsline {table}{\numberline {A.1}{\ignorespaces Data description\relax }}{34}{table.caption.8}}
\newlabel{tab_data}{{A.1}{34}{Data description\relax }{table.caption.8}{}}
\@writefile{lof}{\contentsline {figure}{\numberline {A.1}{\ignorespaces GDP data\relax }}{35}{figure.caption.9}}
\newlabel{gdp_f1}{{A.1}{35}{GDP data\relax }{figure.caption.9}{}}
\@writefile{lof}{\contentsline {figure}{\numberline {A.2}{\ignorespaces GDP data\relax }}{36}{figure.caption.10}}
\newlabel{gdp_f2}{{A.2}{36}{GDP data\relax }{figure.caption.10}{}}
\@writefile{lof}{\contentsline {figure}{\numberline {A.3}{\ignorespaces GDP data\relax }}{37}{figure.caption.11}}
\newlabel{gdp_f3}{{A.3}{37}{GDP data\relax }{figure.caption.11}{}}
\citation{Harding2006}
\citation{Newey1987}
\citation{DenHaan1997_pb}
\@writefile{toc}{\contentsline {section}{\numberline {Appendix B}Estimation of the standard error of the correlation coefficient between states}{38}{appendix.B}}
\newlabel{apdx:GMM}{{Appendix B}{38}{Estimation of the standard error of the correlation coefficient between states}{appendix.B}{}}
\citation{Harding2002}
\citation{Krolzig2001}
\@writefile{toc}{\contentsline {section}{\numberline {Appendix C}Business cycle statistics}{40}{appendix.C}}
\newlabel{apdx:bcstats}{{Appendix C}{40}{Business cycle statistics}{appendix.C}{}}
\@writefile{lof}{\contentsline {figure}{\numberline {C.4}{\ignorespaces Stylized recession\relax }}{40}{figure.caption.12}}
\newlabel{fig:stylrec}{{C.4}{40}{Stylized recession\relax }{figure.caption.12}{}}
